{
	"default": "LowRes_PDF_100",
	"values": [
		"z_optimize_toTrimbox",
		"LowRes_PDF_100",
		"cropWhiteSpace",
		"font2Outline",
		"z_optimize_bleed-neu",
		"missingBleed",
		"m_optimize",
		"missingBleed",
		"m_preflight_tac",
		"z_preflight",
		"z_optimize",
		"m_preflight",
		"m_preflight_tac_97x132",
		"z_optimize_cropWhiteSpace",
		"z_optimize_bleed",
		"preflight-global"
	]
}